{
  "roles": {
    "role1": {
      "role_name": "Developer",
      "employees": {
        "1": true,
        "2": true
      },
      "timestamp": ""
    },
    "role2": {
      "role_name": "CSD",
      "employees": {
        "1": true,
        "2": true
      },
      "timestamp": ""
    }
  }
}